<?xml version="1.0" encoding="UTF-8" standalone="no"?>
<!-- Created with Inkscape (http://www.inkscape.org/) -->

<svg
   width="118.85148mm"
   height="39.221897mm"
   viewBox="0 0 118.85148 39.221897"
   version="1.1"
   id="svg1"
   xml:space="preserve"
   inkscape:export-filename="bitmap.png"
   inkscape:export-xdpi="96"
   inkscape:export-ydpi="96"
   xmlns:inkscape="http://www.inkscape.org/namespaces/inkscape"
   xmlns:sodipodi="http://sodipodi.sourceforge.net/DTD/sodipodi-0.dtd"
   xmlns="http://www.w3.org/2000/svg"
   xmlns:svg="http://www.w3.org/2000/svg"><sodipodi:namedview
     id="namedview1"
     pagecolor="#ffffff"
     bordercolor="#000000"
     borderopacity="0.25"
     inkscape:showpageshadow="2"
     inkscape:pageopacity="0.0"
     inkscape:pagecheckerboard="0"
     inkscape:deskcolor="#d1d1d1"
     inkscape:document-units="mm" /><defs
     id="defs1" /><g
     inkscape:label="Layer 1"
     inkscape:groupmode="layer"
     id="layer1"
     transform="translate(-45.965078,-81.448492)"><rect
       style="fill:#1a1a1a;fill-rule:evenodd;stroke-width:2.30876;stroke-linejoin:round;paint-order:stroke fill markers"
       id="rect1"
       width="118.85148"
       height="39.221893"
       x="45.965076"
       y="81.448494"
       ry="5.92313" /><g
       style="fill:#ffffff"
       id="g1"
       transform="matrix(1.4182526,0,0,1.4182526,89.948392,84.181339)"><path
         d="M 11.955,0.49 A 12,12 0 0 0 0,12.49 12,12 0 0 0 1.832,18.863 L 11.838,5.928 a 0.187,0.14 0 0 1 0.324,0 L 22.168,18.863 A 12,12 0 0 0 24,12.49 a 12,12 0 0 0 -12,-12 12,12 0 0 0 -0.045,0 z m 0.375,6.467 4.416,16.553 a 12,12 0 0 0 5.137,-4.213 z"
         id="path1"
         style="fill:#ffffff" /></g></g></svg>
